winterschool.utf8
…
Applying these workflows into linguistic data

80% general, 20% domain specific

(said someone in Twitter)

Suomen kielen näytteitä

Kotimaisten kielten keskus (2014). Suomen kielen näytteitä -korpuksen Helsinki-Korp-versio [tekstikorpus]. Kielipankki. Saatavilla http://urn.fi/urn:nbn:fi:lb-2016042702

# select() can be used to pick individual columns

skn %>% select(token)

## # A tibble: 776,922 x 1
##    token     
##    <chr>     
##  1 ja        
##  2 sittä     
##  3 pannaan   
##  4 tuota     
##  5 ,         
##  6 ruotarista
##  7 ,         
##  8 ruotari   
##  9 tässä     
## 10 jätköttää 
## # ... with 776,912 more rows

skn %>% select(token, token_norm)

## # A tibble: 776,922 x 2
##    token      token_norm
##    <chr>      <chr>     
##  1 ja         ja        
##  2 sittä      sitten    
##  3 pannaan    pannaan   
##  4 tuota      tuota     
##  5 ,          ,         
##  6 ruotarista ruotarista
##  7 ,          ,         
##  8 ruotari    ruotari   
##  9 tässä      tässä     
## 10 jätköttää  jätköttää 
## # ... with 776,912 more rows

skn %>% select(token, token_norm, location)

## # A tibble: 776,922 x 3
##    token      token_norm location   
##    <chr>      <chr>      <chr>      
##  1 ja         ja         Suomussalmi
##  2 sittä      sitten     Suomussalmi
##  3 pannaan    pannaan    Suomussalmi
##  4 tuota      tuota      Suomussalmi
##  5 ,          ,          Suomussalmi
##  6 ruotarista ruotarista Suomussalmi
##  7 ,          ,          Suomussalmi
##  8 ruotari    ruotari    Suomussalmi
##  9 tässä      tässä      Suomussalmi
## 10 jätköttää  jätköttää  Suomussalmi
## # ... with 776,912 more rows

skn %>% select(token, token_norm, location, time_rec)

## # A tibble: 776,922 x 4
##    token      token_norm location    time_rec
##    <chr>      <chr>      <chr>          <dbl>
##  1 ja         ja         Suomussalmi     1978
##  2 sittä      sitten     Suomussalmi     1978
##  3 pannaan    pannaan    Suomussalmi     1978
##  4 tuota      tuota      Suomussalmi     1978
##  5 ,          ,          Suomussalmi     1978
##  6 ruotarista ruotarista Suomussalmi     1978
##  7 ,          ,          Suomussalmi     1978
##  8 ruotari    ruotari    Suomussalmi     1978
##  9 tässä      tässä      Suomussalmi     1978
## 10 jätköttää  jätköttää  Suomussalmi     1978
## # ... with 776,912 more rows

skn %>% select(token, token_norm, location, time_rec, participant, dialect_area)

## # A tibble: 776,922 x 6
##    token      token_norm location    time_rec participant dialect_area   
##    <chr>      <chr>      <chr>          <dbl> <chr>       <chr>          
##  1 ja         ja         Suomussalmi     1978 RJ          Savolaismurteet
##  2 sittä      sitten     Suomussalmi     1978 RJ          Savolaismurteet
##  3 pannaan    pannaan    Suomussalmi     1978 RJ          Savolaismurteet
##  4 tuota      tuota      Suomussalmi     1978 RJ          Savolaismurteet
##  5 ,          ,          Suomussalmi     1978 RJ          Savolaismurteet
##  6 ruotarista ruotarista Suomussalmi     1978 RJ          Savolaismurteet
##  7 ,          ,          Suomussalmi     1978 RJ          Savolaismurteet
##  8 ruotari    ruotari    Suomussalmi     1978 RJ          Savolaismurteet
##  9 tässä      tässä      Suomussalmi     1978 RJ          Savolaismurteet
## 10 jätköttää  jätköttää  Suomussalmi     1978 RJ          Savolaismurteet
## # ... with 776,912 more rows

This is what metadata is for!

skn %>% select(token, token_norm)

## # A tibble: 776,922 x 2
##    token      token_norm
##    <chr>      <chr>     
##  1 ja         ja        
##  2 sittä      sitten    
##  3 pannaan    pannaan   
##  4 tuota      tuota     
##  5 ,          ,         
##  6 ruotarista ruotarista
##  7 ,          ,         
##  8 ruotari    ruotari   
##  9 tässä      tässä     
## 10 jätköttää  jätköttää 
## # ... with 776,912 more rows

skn %>% select(token, token_norm, lemma)

## # A tibble: 776,922 x 3
##    token      token_norm lemma    
##    <chr>      <chr>      <chr>    
##  1 ja         ja         ja       
##  2 sittä      sitten     sitten   
##  3 pannaan    pannaan    panna    
##  4 tuota      tuota      tuo      
##  5 ,          ,          ,        
##  6 ruotarista ruotarista ruko     
##  7 ,          ,          ,        
##  8 ruotari    ruotari    ruotari  
##  9 tässä      tässä      tämä     
## 10 jätköttää  jätköttää  jätköttää
## # ... with 776,912 more rows

skn %>% select(token, token_norm, lemma, pos, morph)

## # A tibble: 776,922 x 5
##    token      token_norm lemma     pos   morph                            
##    <chr>      <chr>      <chr>     <chr> <chr>                            
##  1 ja         ja         ja        C     SUBCAT_CC                        
##  2 sittä      sitten     sitten    Adv   _                                
##  3 pannaan    pannaan    panna     V     PRS_Pe4|VOICE_Pass|TENSE_Prs|MOO…
##  4 tuota      tuota      tuo       Pron  SUBCAT_Dem|NUM_Sg|CASE_Par       
##  5 ,          ,          ,         Punct _                                
##  6 ruotarista ruotarista ruko      A     NUM_Sg|CASE_Par|DRV_Der_inen|CMP…
##  7 ,          ,          ,         Punct _                                
##  8 ruotari    ruotari    ruotari   N     NUM_Sg|CASE_Nom|OTHER_UNK        
##  9 tässä      tässä      tämä      Pron  SUBCAT_Dem|NUM_Sg|CASE_Ine       
## 10 jätköttää  jätköttää  jätköttää N     NUM_Sg|CASE_Par|OTHER_UNK        
## # ... with 776,912 more rows

skn %>% select(token, token_norm, lemma, pos, morph, dephead, deprel)

## # A tibble: 776,922 x 7
##    token      token_norm lemma     pos   morph              dephead deprel
##    <chr>      <chr>      <chr>     <chr> <chr>              <chr>   <chr> 
##  1 ja         ja         ja        C     SUBCAT_CC          3       advmod
##  2 sittä      sitten     sitten    Adv   _                  3       advmod
##  3 pannaan    pannaan    panna     V     PRS_Pe4|VOICE_Pas… 0       ROOT  
##  4 tuota      tuota      tuo       Pron  SUBCAT_Dem|NUM_Sg… 8       det   
##  5 ,          ,          ,         Punct _                  6       punct 
##  6 ruotarista ruotarista ruko      A     NUM_Sg|CASE_Par|D… 4       rcmod 
##  7 ,          ,          ,         Punct _                  6       punct 
##  8 ruotari    ruotari    ruotari   N     NUM_Sg|CASE_Nom|O… 3       dobj  
##  9 tässä      tässä      tämä      Pron  SUBCAT_Dem|NUM_Sg… 10      det   
## 10 jätköttää  jätköttää  jätköttää N     NUM_Sg|CASE_Par|O… 8       nommod
## # ... with 776,912 more rows
…
# filter selects rows that match some condition

# here the search is "everything where the normalized token is 'metsä'"

skn %>% filter(token_norm == "metsä")

## # A tibble: 50 x 25
##    token token_norm location time_rec token_orig pos   morph lemma dephead
##    <chr> <chr>      <chr>       <dbl> <chr>      <chr> <chr> <chr> <chr>  
##  1 mehtä metsä      Pihtipu…     1982 'mehtä     N     NUM_… metsä 17     
##  2 metsä metsä      Rautu        1982 "\"metsä"  N     NUM_… metsä 22     
##  3 mettÄ metsä      Jurva        1978 'mettÄ     N     NUM_… metsä 10     
##  4 mehtä metsä      Kalajoki     1984 'mehtä     N     NUM_… metsä 11     
##  5 mettÄ metsä      Ikaalin…     1985 "\"mettÄ"  N     NUM_… metsä 3      
##  6 mettä metsä      Alatorn…     1985 'mettä     N     NUM_… metsä 25     
##  7 mettä metsä      Alatorn…     1985 'mettä     N     NUM_… metsä 9      
##  8 mettä metsä      Alatorn…     1985 'mettä     N     NUM_… metsä 5      
##  9 metsä metsä      Alatorn…     1985 "\"met̳s̳§ä" N     NUM_… metsä 20     
## 10 mettä metsä      Hollola      1985 "\"mettä"  N     NUM_… metsä 6      
## # ... with 40 more rows, and 16 more variables: deprel <chr>, ref <chr>,
## #   participant <chr>, gender <chr>, dialect <chr>, dialect_area <chr>,
## #   role <chr>, url <chr>, wav <chr>, start <chr>, length <chr>, id <chr>,
## #   position <int>, country <chr>, latitude <dbl>, longitude <dbl>

# This query has several conditions

skn %>% filter(lemma == "syödä" & morph == "PRS_Sg3|VOICE_Act|TENSE_Prs|MOOD_Ind")

## # A tibble: 93 x 25
##    token token_norm location time_rec token_orig pos   morph lemma dephead
##    <chr> <chr>      <chr>       <dbl> <chr>      <chr> <chr> <chr> <chr>  
##  1 syöpi syö        Salla        1981 syöpi      V     PRS_… syödä 22     
##  2 syöpi syö        Salla        1981 syöpi      V     PRS_… syödä 0      
##  3 syö   syö        Suomuss…     1978 "\"syöˀ"   V     PRS_… syödä 4      
##  4 syöpi syö        Kiihtel…     1982 "\"syöpi"  V     PRS_… syödä 36     
##  5 syö   syö        Rautu        1982 'syö       V     PRS_… syödä 22     
##  6 syö   syö        Rautu        1982 'syö       V     PRS_… syödä 20     
##  7 syöv  syö        Liperi       1983 'syöv      V     PRS_… syödä 2      
##  8 syö   syö        Kalajoki     1984 "\"syö"    V     PRS_… syödä 0      
##  9 syöm  syö        Kalajoki     1984 'syöm      V     PRS_… syödä 0      
## 10 syö   syö        Kalajoki     1984 'syö       V     PRS_… syödä 4      
## # ... with 83 more rows, and 16 more variables: deprel <chr>, ref <chr>,
## #   participant <chr>, gender <chr>, dialect <chr>, dialect_area <chr>,
## #   role <chr>, url <chr>, wav <chr>, start <chr>, length <chr>, id <chr>,
## #   position <int>, country <chr>, latitude <dbl>, longitude <dbl>

# str_detect is an easy to use regular expressions

skn %>% filter(str_detect(token_norm, "^metsä"))

## # A tibble: 827 x 25
##    token token_norm location time_rec token_orig pos   morph lemma dephead
##    <chr> <chr>      <chr>       <dbl> <chr>      <chr> <chr> <chr> <chr>  
##  1 mett… metsänä    Kauhava      1982 "\"mettän… N     NUM_… metsä 4      
##  2 mett… metsänrii… Kauhava      1982 "\"mettär… N     NUM_… mets… 29     
##  3 mett… metsänrii… Kauhava      1982 "\"mettär… N     NUM_… mets… 3      
##  4 meth… metsään    Kauhava      1982 "\"methän" N     NUM_… metsä 16     
##  5 meth… metsään    Kauhava      1982 "\"methäŋ" N     NUM_… metsä 7      
##  6 meth… metsään    Kauhava      1982 "\"methäm" N     NUM_… metsä 14     
##  7 mett… metsää     Kauhava      1982 "\"mettᴀ̈ᴀ̈" N     NUM_… metsä 60     
##  8 mett… metsään    Kauhava      1982 "\"metthä… N     NUM_… metsä 12     
##  9 mett… metsässä   Kauhava      1982 "\"mettäs" N     NUM_… metsä 65     
## 10 mett… metsästä   Kauhava      1982 "\"mettäs… N     NUM_… metsä 35     
## # ... with 817 more rows, and 16 more variables: deprel <chr>, ref <chr>,
## #   participant <chr>, gender <chr>, dialect <chr>, dialect_area <chr>,
## #   role <chr>, url <chr>, wav <chr>, start <chr>, length <chr>, id <chr>,
## #   position <int>, country <chr>, latitude <dbl>, longitude <dbl>

# with many Uralic languages you get really far 

# just by matching strings

skn %>% filter(str_detect(token, ".+stä$"))

## # A tibble: 2,304 x 25
##    token token_norm location time_rec token_orig pos   morph lemma dephead
##    <chr> <chr>      <chr>       <dbl> <chr>      <chr> <chr> <chr> <chr>  
##  1 väli… välistä    Kauhava      1982 "\"välist… N     NUM_… väli  12     
##  2 tästä tästä      Kauhava      1982 'tästä     Pron  SUBC… tämä  32     
##  3 Lyyt… Lyytistä   Kauhava      1982 "\"Lyytis… N     SUBC… Lyyt… 8      
##  4 tästä tästä      Suomuss…     1978 tästä      Pron  SUBC… tämä  24     
##  5 Härm… Härmästä   Kauhava      1982 "\"Härmäs… N     NUM_… härmä 5      
##  6 Härm… Härmästä   Kauhava      1982 'Härmästä  N     SUBC… Härmä 5      
##  7 pääs… päästä     Kauhava      1982 'päästä    N     NUM_… pää   1      
##  8 tästä tästä      Kauhava      1982 'tästä     Pron  SUBC… tämä  12     
##  9 tästä tästä      Kauhava      1982 'tästä     Pron  SUBC… tämä  9      
## 10 niis… niistä     Kauhava      1982 niistä     Pron  SUBC… se    10     
## # ... with 2,294 more rows, and 16 more variables: deprel <chr>,
## #   ref <chr>, participant <chr>, gender <chr>, dialect <chr>,
## #   dialect_area <chr>, role <chr>, url <chr>, wav <chr>, start <chr>,
## #   length <chr>, id <chr>, position <int>, country <chr>, latitude <dbl>,
## #   longitude <dbl>

# another example

skn %>% filter(lemma =="metsä" & str_detect(morph, "CASE_Ill"))

## # A tibble: 128 x 25
##    token token_norm location time_rec token_orig pos   morph lemma dephead
##    <chr> <chr>      <chr>       <dbl> <chr>      <chr> <chr> <chr> <chr>  
##  1 meth… metsään    Kauhava      1982 "\"methän" N     NUM_… metsä 16     
##  2 meth… metsään    Kauhava      1982 "\"methäŋ" N     NUM_… metsä 7      
##  3 meth… metsään    Kauhava      1982 "\"methäm" N     NUM_… metsä 14     
##  4 mett… metsään    Kauhava      1982 "\"metthä… N     NUM_… metsä 12     
##  5 mettä metsään    Salla        1981 'mettä     N     NUM_… metsä 45     
##  6 mett… metsään    Salla        1981 'mettähä   N     NUM_… metsä 16     
##  7 mett… metsään    Salla        1981 'mettä₍än  N     NUM_… metsä 2      
##  8 mett… metsään    Salla        1981 mettäh̬ä    N     NUM_… metsä 15     
##  9 mettä metsään    Salla        1981 'mettä     N     NUM_… metsä 33     
## 10 meht… metsään    Pihtipu…     1982 "\"mehtää… N     NUM_… metsä 93     
## # ... with 118 more rows, and 16 more variables: deprel <chr>, ref <chr>,
## #   participant <chr>, gender <chr>, dialect <chr>, dialect_area <chr>,
## #   role <chr>, url <chr>, wav <chr>, start <chr>, length <chr>, id <chr>,
## #   position <int>, country <chr>, latitude <dbl>, longitude <dbl>
…
